<svg xmlns="http://www.w3.org/2000/svg" viewBox="0 0 15.149 13.129">
  <defs>
    <style>
      .cls-1 {
        fill: #fff;
      }
    </style>
  </defs>
  <g id="photo-camera" transform="translate(-0.907 -37.326)">
    <g id="Group_187" data-name="Group 187" transform="translate(0.907 37.326)">
      <path id="Path_47" data-name="Path 47" class="cls-1" d="M14.557,39.152a1.946,1.946,0,0,0-1.428-.592H11.362l-.4-1.073a1.465,1.465,0,0,0-.548-.667,1.405,1.405,0,0,0-.817-.28H5.555a1.405,1.405,0,0,0-.817.28,1.466,1.466,0,0,0-.548.667l-.4,1.073H2.02a1.946,1.946,0,0,0-1.428.592A1.946,1.946,0,0,0,0,40.58v7.07a1.946,1.946,0,0,0,.592,1.428,1.946,1.946,0,0,0,1.428.592H13.129a2.02,2.02,0,0,0,2.02-2.02V40.58A1.946,1.946,0,0,0,14.557,39.152Zm-4.486,7.46a3.4,3.4,0,0,1-2.5,1.038,3.4,3.4,0,0,1-2.5-1.038,3.524,3.524,0,0,1,0-4.994,3.4,3.4,0,0,1,2.5-1.038,3.4,3.4,0,0,1,2.5,1.038,3.524,3.524,0,0,1,0,4.994Z" transform="translate(0 -36.54)"/>
      <path id="Path_48" data-name="Path 48" class="cls-1" d="M194.128,228.4a2.277,2.277,0,1,0,1.606.667A2.189,2.189,0,0,0,194.128,228.4Z" transform="translate(-186.554 -223.101)"/>
    </g>
  </g>
</svg>
